<?xml version="1.0" encoding="UTF-8" standalone="no"?>
<svg width="121px" height="128px" viewBox="0 0 121 128" version="1.1" xmlns="http://www.w3.org/2000/svg" xmlns:xlink="http://www.w3.org/1999/xlink" xmlns:sketch="http://www.bohemiancoding.com/sketch/ns">
    <!-- Generator: Sketch 3.3.1 (12002) - http://www.bohemiancoding.com/sketch -->
    <title>Imported Layers</title>
    <desc>Created with Sketch.</desc>
    <defs></defs>
    <g id="7.0-IndividualTournament" stroke="none" stroke-width="1" fill="none" fill-rule="evenodd" sketch:type="MSPage">
        <g sketch:type="MSArtboardGroup" transform="translate(-660.000000, -816.000000)" id="Imported-Layers" fill="#17324A">
            <g sketch:type="MSLayerGroup" transform="translate(660.000000, 816.000000)">
                <path d="M119.955611,82.0584115 L116.631167,78.1204211 C115.734667,77.0590622 114.18,76.8496077 113.036,77.6359809 L99.2303889,87.122067 C98.5233333,87.6077321 97.5596111,87.4576842 97.0322222,86.7791005 L80.4595,65.4202488 L71.6643889,49.453933 C71.3863333,48.9480574 71.8465,48.3539904 72.4050556,48.4991388 L90.4047222,53.1892057 C91.6874444,53.5235981 92.9848333,52.705378 93.2390556,51.4008804 L93.9876667,47.5596555 C94.2614444,46.1553301 93.5268889,44.7424306 92.2215556,44.1630622 L63.712,31.5100478 C62.0418333,30.7683828 60.1944444,30.5148325 58.3861667,30.7757321 L16.588,36.8358278 C15.2001667,37.0373206 14.1686111,38.2321914 14.1686111,39.6365167 L14.1686111,43.3926124 C14.1686111,44.7657033 15.2411111,45.8999426 16.6093889,45.9734354 L43.7903889,47.436555 C44.7400556,47.4873876 45.6053889,48.0183732 46.0814444,48.8427177 C53.13,61.0327273 56.3487222,70.0643828 92.5625556,104.741359 C93.5696667,105.705952 95.1414444,105.762909 96.2151667,104.874258 L119.649444,85.4880766 C120.687111,84.6300478 120.824611,83.087311 119.955611,82.0584115" id="Fill-1" sketch:type="MSShapeGroup"></path>
                <path d="M47.4203889,126.246584 L53.1098333,126.246584 C54.4866667,126.246584 55.6318889,125.179713 55.7321111,123.80356 L57.2421667,103.051024 C57.3136667,102.061933 57.7096667,101.12 58.3641667,100.376498 L68.2910556,89.1063732 C63.7315556,83.9435024 59.2991667,78.5901627 55.759,74.2057033 L42.4349444,94.5203445 C41.5696111,95.8389282 41.2053889,97.43311 41.4101111,98.9966699 L44.6575556,123.817646 C44.8396667,125.206048 46.0233889,126.246584 47.4203889,126.246584" id="Fill-2" sketch:type="MSShapeGroup"></path>
                <path d="M61.7741667,13.3126124 C61.7741667,6.29343541 56.0969444,0.603866029 49.0917778,0.603866029 C42.0884444,0.603866029 36.4118333,6.29343541 36.4118333,13.3126124 C36.4118333,20.3317895 42.0884444,26.0219713 49.0917778,26.0219713 C56.0969444,26.0219713 61.7741667,20.3317895 61.7741667,13.3126124" id="Fill-3" sketch:type="MSShapeGroup"></path>
                <path d="M29.5961111,112.673072 C29.5961111,104.539254 22.9924444,97.9218373 14.8756667,97.9218373 C6.75888889,97.9218373 0.155222222,104.539254 0.155222222,112.673072 C0.155222222,120.807502 6.75888889,127.425531 14.8756667,127.425531 C22.9924444,127.425531 29.5961111,120.807502 29.5961111,112.673072 L29.5961111,112.673072 Z M14.8756667,103.433799 C19.9692778,103.433799 24.0961111,107.570833 24.0961111,112.673072 C24.0961111,117.777761 19.9692778,121.913569 14.8756667,121.913569 C9.78327778,121.913569 5.65522222,117.777761 5.65522222,112.673072 C5.65522222,107.570833 9.78327778,103.433799 14.8756667,103.433799 L14.8756667,103.433799 Z" id="Fill-4" sketch:type="MSShapeGroup"></path>
            </g>
        </g>
    </g>
</svg>