<?xml version="1.0" encoding="UTF-8" standalone="no"?>
<svg width="99px" height="81px" viewBox="0 0 99 81" version="1.1" xmlns="http://www.w3.org/2000/svg" xmlns:xlink="http://www.w3.org/1999/xlink" xmlns:sketch="http://www.bohemiancoding.com/sketch/ns">
    <!-- Generator: Sketch 3.3.1 (12002) - http://www.bohemiancoding.com/sketch -->
    <title>Imported Layers</title>
    <desc>Created with Sketch.</desc>
    <defs></defs>
    <g id="3.0-Sports" stroke="none" stroke-width="1" fill="none" fill-rule="evenodd" sketch:type="MSPage">
        <g sketch:type="MSArtboardGroup" transform="translate(-719.000000, -1325.000000)" id="Demonstration-Sports" fill="#F6F6F6">
            <g sketch:type="MSLayerGroup" transform="translate(130.000000, 1189.000000)">
                <g id="Ice-Hockey" transform="translate(528.000000, 104.000000)" sketch:type="MSShapeGroup">
                    <g id="Imported-Layers" transform="translate(61.000000, 32.000000)">
                        <path d="M54.1541892,49.4853226 C53.2042432,43.0170968 46.298027,34.7090323 39.8422162,29.0387097 C37.6666216,27.1275806 34.0333514,27.6074194 32.1798649,29.9956452 C30.441027,32.2412903 28.1071081,36.9135484 26.2891081,40.8317742 L18.3865405,35.4520968 C15.9434324,33.7877419 12.7087027,34.4375806 10.9261892,36.7682258 C9.96532432,38.0240323 7.30656757,41.4048387 6.11367568,42.9595161 C4.73516216,44.7637097 5.0872973,47.3493548 6.88618919,48.7258065 C7.62867568,49.2933871 8.49945946,49.5675806 9.36751351,49.5675806 C10.6013514,49.5675806 11.8242703,49.0164516 12.6268108,47.9498387 C13.0198919,47.4233871 14.1991351,45.8495161 14.1991351,45.8495161 L25.5548108,53.5845161 C26.472,54.2041935 27.8723514,54.8896774 30.1598649,54.3001613 C31.7403784,53.8998387 33.0015135,52.698871 33.6402703,51.1935484 C34.7430811,48.5969355 36.2826486,45.1969355 37.713027,42.2877419 C41.3353784,46.2827419 43.0742162,49.4003226 43.3662973,51.0975806 C43.3144324,53.2609677 38.9468649,60.518871 34.2025946,66.3180645 C32.2890541,68.6596774 32.6248108,72.1117742 34.9532703,74.033871 C35.9687297,74.8756452 37.1971081,75.2869355 38.4172973,75.2869355 L46.9258649,75.2869355 C49.1860811,75.2869355 51.0204595,73.4470968 51.0204595,71.1740323 C51.0204595,69.0325806 49.3880811,67.2969355 47.3134865,67.0995161 C51.2661351,61.3990323 54.8912162,54.4920968 54.1541892,49.4853226" id="Fill-1"></path>
                        <path d="M48.8257568,78.026129 L34.5274324,78.026129 C33.7712973,78.026129 33.1625676,78.6403226 33.1625676,79.3998387 C33.1625676,80.1566129 33.7712973,80.7680645 34.5274324,80.7680645 L48.8257568,80.7680645 C49.5791622,80.7680645 50.1906216,80.1566129 50.1906216,79.3998387 C50.1906216,78.6403226 49.5791622,78.026129 48.8257568,78.026129" id="Fill-2"></path>
                        <path d="M11.3056216,29.5541935 C10.7105405,29.0908065 9.85067568,29.2032258 9.39208108,29.8009677 L0.648756757,41.1662903 C0.187432432,41.7667742 0.299351351,42.625 0.894432432,43.0883871 C1.14283784,43.2830645 1.43764865,43.3762903 1.72972973,43.3762903 C2.13645946,43.3762903 2.54045946,43.1925806 2.80797297,42.8416129 L11.5512973,31.4762903 C12.0126216,30.8758065 11.9034324,30.0148387 11.3056216,29.5541935" id="Fill-3"></path>
                        <path d="M70.7837027,22.1674194 C76.8136757,22.1674194 81.7026216,17.2566129 81.7026216,11.1996774 C81.7026216,5.14274194 76.8136757,0.231935484 70.7837027,0.231935484 C64.7537297,0.231935484 59.8647838,5.14274194 59.8647838,11.1996774 C59.8647838,17.2566129 64.7537297,22.1674194 70.7837027,22.1674194" id="Fill-4"></path>
                        <path d="M98.8862703,68.6596774 C98.5505135,67.1845161 97.0901081,66.2604839 95.6160541,66.595 C95.6160541,66.595 89.7744324,68.1441935 87.7762703,68.3854839 C86.6761892,68.5170968 84.8145135,66.8253226 83.5260811,65.6764516 L64.2842162,46.0743548 C65.4689189,45.133871 66.2687297,43.7190323 66.3533514,42.0848387 C66.7382432,34.5198387 66.1404324,28.4574194 65.0103243,23.5767742 C60.3697838,21.3804839 57.1350541,16.6780645 57.1350541,11.1996774 C57.1350541,10.2646774 57.2305946,9.3516129 57.408027,8.46596774 C53.6737568,4.64370968 49.0168378,2.52967742 44.2370811,2.52967742 C34.6775676,2.53516129 30.8013514,11.5204839 30.0861622,16.2695161 C29.6357568,19.2637097 31.6857838,22.0577419 34.6666486,22.5129032 C35.693027,22.6664516 36.6921081,22.5019355 37.5847297,22.1262903 L55.4699189,40.8180645 C55.4617297,41.0593548 55.459,41.2814516 55.4453514,41.5227419 C55.2924865,44.5498387 57.610027,47.1272581 60.6181892,47.2835484 C60.7137297,47.2862903 61.3688649,47.2533871 61.5954324,47.2204839 L86.132973,72.5943548 C86.3049459,72.8466129 87.5715405,74.0009677 88.9855405,73.7295161 L96.8280541,71.9417742 C98.2993784,71.6045161 99.2192973,70.1375806 98.8862703,68.6596774 L98.8862703,68.6596774 Z M44.2343514,13.4974194 C45.1078649,13.4974194 47.3844595,13.768871 49.7511351,16.2722581 C51.9704054,18.6166129 55.4344324,24.3225806 55.5381622,36.9327419 L39.7657838,20.4482258 C40.3281081,19.7298387 40.7375676,18.8770968 40.8822432,17.9091935 C40.8877027,17.8653226 41.6602162,13.5001613 44.2343514,13.4974194 L44.2343514,13.4974194 Z" id="Fill-5"></path>
                    </g>
                </g>
            </g>
        </g>
    </g>
</svg>