<?xml version="1.0" encoding="UTF-8" standalone="no"?>
<svg width="484px" height="234px" viewBox="0 0 484 234" version="1.1" xmlns="http://www.w3.org/2000/svg" xmlns:xlink="http://www.w3.org/1999/xlink" xmlns:sketch="http://www.bohemiancoding.com/sketch/ns">
    <!-- Generator: Sketch 3.3.1 (12002) - http://www.bohemiancoding.com/sketch -->
    <title>SSNL Logo</title>
    <desc>Created with Sketch.</desc>
    <defs></defs>
    <g id="Logos/Color" stroke="none" stroke-width="1" fill="none" fill-rule="evenodd" sketch:type="MSPage">
        <g sketch:type="MSArtboardGroup" transform="translate(-731.000000, -259.000000)" id="SSNL-Logo">
            <g sketch:type="MSLayerGroup" transform="translate(730.000000, 258.500000)">
                <path d="M171.354146,66.3453774 C168.489848,66.3453774 165.946103,66.0601258 163.714049,65.4866667 C161.481994,64.9205975 159.548334,64.2082075 157.908638,63.3627987 L159.647307,54.0913836 L160.577945,54.0913836 C162.127532,55.7260377 163.937106,56.985283 166.015532,57.8735535 C168.080663,58.7677358 170.317149,59.217044 172.71465,59.217044 C175.163854,59.217044 176.961611,58.8283333 178.118261,58.0583019 C179.264571,57.2823585 179.849544,56.1753459 179.849544,54.7298742 C179.849544,54.1948428 179.752049,53.7366667 179.564444,53.346478 C179.376839,52.9533333 179.02231,52.5720126 178.471313,52.1833019 C177.929179,51.8093711 177.199441,51.4265723 176.261416,51.0585535 C175.323392,50.6905346 174.119471,50.2515723 172.654085,49.7697484 C171.026207,49.2554088 169.568207,48.6863836 168.268267,48.0848428 C166.966851,47.4759119 165.867812,46.7590881 164.96524,45.9240252 C164.055283,45.0756604 163.35952,44.0987107 162.892723,42.9902201 C162.420018,41.8832075 162.183666,40.5574528 162.183666,39.0188679 C162.183666,35.136195 163.657915,32.0412893 166.612322,29.725283 C169.568207,27.4151887 173.611313,26.2608805 178.756413,26.2608805 C181.224821,26.2608805 183.554371,26.4899686 185.743587,26.9599686 C187.93428,27.4284906 189.789647,28.0581132 191.305258,28.8547484 L189.686243,37.7507547 L188.754128,37.7507547 C187.594523,36.5151572 186.056754,35.4776101 184.152638,34.6425472 C182.23966,33.8074843 180.161234,33.3906918 177.895204,33.3906918 C175.677921,33.3906918 173.959933,33.7587107 172.744195,34.5065723 C171.534365,35.248522 170.921325,36.2757233 170.921325,37.5852201 C170.921325,38.192673 171.012912,38.6907547 171.200517,39.0942453 C171.382213,39.4918239 171.751514,39.8805346 172.293647,40.2633333 C172.772261,40.6106604 173.52859,40.9860692 174.565587,41.3925157 C175.602584,41.7989623 176.809459,42.2201887 178.18769,42.653239 C181.92797,43.8164151 184.597277,45.1732075 186.194134,46.7324843 C187.786559,48.290283 188.587204,50.405283 188.587204,53.0686164 C188.587204,55.3077673 188.15586,57.2734906 187.287264,58.9657862 C186.418669,60.6625157 185.222134,62.041478 183.706523,63.096761 C182.115574,64.2244654 180.292705,65.0447484 178.263027,65.566478 C176.227441,66.0852516 173.925957,66.3453774 171.354146,66.3453774" id="Fill-1" fill="#17253B" sketch:type="MSShapeGroup"></path>
                <path d="M208.386164,66.4857862 C203.873307,66.4857862 200.384152,65.1925472 197.931994,62.6193711 C195.475404,60.037327 194.253757,56.3438365 194.253757,51.5315094 C194.253757,47.7330818 194.794413,44.2819811 195.88459,41.1944654 C196.97772,38.1039937 198.47265,35.4288365 200.356085,33.1719497 C202.21293,30.9830503 204.443508,29.2730189 207.037477,28.0418553 C209.631447,26.8062579 212.35541,26.1928931 215.219708,26.1928931 C217.515283,26.1928931 219.646888,26.4633648 221.616,27.0072642 C223.589544,27.5555975 225.375483,28.3551887 226.975295,29.4119497 L224.994365,38.7883019 L224.000207,38.7883019 C222.568796,37.0324528 221.15659,35.7377358 219.751769,34.9100629 C218.348426,34.0823899 216.69248,33.6700314 214.788365,33.6700314 C211.452839,33.6700314 208.70524,35.2248742 206.544091,38.3286478 C204.381465,41.4368553 203.304584,45.3963836 203.304584,50.2057547 C203.304584,53.2932704 203.895465,55.5368553 205.090523,56.9246855 C206.281149,58.3154717 208.039021,59.0071698 210.346413,59.0071698 C212.405635,59.0071698 214.345204,58.5268239 216.15921,57.5646541 C217.971739,56.6010063 219.68234,55.3772327 221.296924,53.8844654 L222.199495,53.8844654 L220.254018,63.1544025 C219.57155,63.4677358 218.781246,63.8401887 217.883106,64.2835849 C216.986444,64.7328931 216.125234,65.0876101 215.309818,65.3654717 C214.238845,65.7275786 213.237301,66.0069182 212.300754,66.1961006 C211.361252,66.383805 210.061313,66.4857862 208.386164,66.4857862" id="Fill-2" fill="#17253B" sketch:type="MSShapeGroup"></path>
                <path d="M265.066468,27.020566 L257.349556,65.6507233 L248.681325,65.6507233 L252.092188,48.5533648 L239.392669,48.5533648 L235.962602,65.6507233 L227.295848,65.6507233 L235.033441,27.020566 L243.701672,27.020566 L240.858055,41.2166352 L253.559052,41.2166352 L256.395283,27.020566 L265.066468,27.020566" id="Fill-3" fill="#17253B" sketch:type="MSShapeGroup"></path>
                <path d="M303.936128,41.3895597 C303.936128,44.5583648 303.466377,47.6769182 302.543125,50.7422642 C301.612486,53.8061321 300.260845,56.4827673 298.501495,58.7677358 C296.576699,61.2625786 294.34169,63.1750943 291.766924,64.4964151 C289.19659,65.8206918 286.234796,66.4857862 282.875635,66.4857862 C278.322894,66.4857862 274.755447,65.1230818 272.17034,62.394717 C269.591143,59.6648742 268.297112,55.9137421 268.297112,51.1280189 C268.297112,47.7655975 268.789021,44.5761006 269.786134,41.5417925 C270.772906,38.5163522 272.191021,35.8456289 274.024231,33.5429245 C275.826419,31.3082075 278.043702,29.5242767 280.693805,28.1911321 C283.336523,26.8594654 286.220024,26.1928931 289.326584,26.1928931 C293.907392,26.1928931 297.488134,27.5615094 300.067331,30.2957862 C302.646529,33.0315409 303.936128,36.7294654 303.936128,41.3895597 L303.936128,41.3895597 Z M291.620681,54.5894654 C292.651769,53.0538365 293.446505,51.2639937 294.025568,49.228805 C294.597246,47.1832704 294.880869,44.8377044 294.880869,42.1891509 C294.880869,39.4179245 294.309191,37.243805 293.164359,35.6756604 C292.018049,34.1075157 290.384261,33.3212264 288.251179,33.3212264 C286.858176,33.3212264 285.524261,33.6892453 284.265684,34.428239 C282.998243,35.1627987 281.832729,36.2875472 280.763234,37.7936164 C279.739532,39.2331761 278.912298,41.0244969 278.287441,43.1631447 C277.662584,45.3047484 277.347939,47.7123899 277.347939,50.3831132 C277.347939,53.346478 277.932912,55.582673 279.10138,57.0887421 C280.269848,58.5962893 281.900681,59.3574528 284.001264,59.3574528 C285.420857,59.3574528 286.800565,58.9450943 288.135957,58.1174214 C289.472827,57.2971384 290.632432,56.1221384 291.620681,54.5894654 L291.620681,54.5894654 Z" id="Fill-4" fill="#17253B" sketch:type="MSShapeGroup"></path>
                <path d="M344.157429,41.3895597 C344.157429,44.5583648 343.693587,47.6769182 342.759994,50.7422642 C341.833787,53.8061321 340.4851,56.4827673 338.719842,58.7677358 C336.799477,61.2625786 334.557082,63.1750943 331.988225,64.4964151 C329.417891,65.8206918 326.457574,66.4857862 323.099891,66.4857862 C318.545672,66.4857862 314.978225,65.1230818 312.393119,62.394717 C309.806535,59.6648742 308.521368,55.9137421 308.521368,51.1280189 C308.521368,47.7655975 309.014754,44.5761006 310.000049,41.5417925 C310.988298,38.5163522 312.406413,35.8456289 314.249964,33.5429245 C316.049198,31.3082075 318.267957,29.5242767 320.915106,28.1911321 C323.556347,26.8594654 326.435416,26.1928931 329.552316,26.1928931 C334.131647,26.1928931 337.710912,27.5615094 340.284201,30.2957862 C342.863398,33.0315409 344.157429,36.7294654 344.157429,41.3895597 L344.157429,41.3895597 Z M331.844936,54.5894654 C332.87307,53.0538365 333.672237,51.2639937 334.243915,49.228805 C334.820024,47.1832704 335.105125,44.8377044 335.105125,42.1891509 C335.105125,39.4179245 334.527538,37.243805 333.378274,35.6756604 C332.234918,34.1075157 330.601131,33.3212264 328.471003,33.3212264 C327.075046,33.3212264 325.748517,33.6892453 324.489939,34.428239 C323.218067,35.1627987 322.056985,36.2875472 320.984535,37.7936164 C319.965264,39.2331761 319.136553,41.0244969 318.50431,43.1631447 C317.875021,45.3047484 317.563331,47.7123899 317.563331,50.3831132 C317.563331,53.346478 318.146827,55.582673 319.319726,57.0887421 C320.492626,58.5962893 322.126413,59.3574528 324.218134,59.3574528 C325.642158,59.3574528 327.020389,58.9450943 328.352827,58.1174214 C329.695605,57.2971384 330.858164,56.1221384 331.844936,54.5894654 L331.844936,54.5894654 Z" id="Fill-5" fill="#17253B" sketch:type="MSShapeGroup"></path>
                <path d="M371.547739,65.6507233 L347.376255,65.6507233 L355.119757,27.020566 L363.782079,27.020566 L357.537939,58.1721069 L373.035283,58.1721069 L371.547739,65.6507233" id="Fill-6" fill="#17253B" sketch:type="MSShapeGroup"></path>
                <path d="M174.481386,201.903428 L170.241812,201.903428 L164.588553,186.660943 L161.502675,201.903428 L156.921866,201.903428 L161.383021,179.882893 L166.938784,179.882893 L171.776626,192.633491 L174.33662,179.882893 L178.923337,179.882893 L174.481386,201.903428" id="Fill-7" fill="#17253B" sketch:type="MSShapeGroup"></path>
                <path d="M198.404699,179.882893 L197.570079,184.081855 L188.553228,184.081855 L187.761447,188.002956 L196.09583,188.002956 L195.246438,192.203396 L186.903191,192.203396 L185.792334,197.710377 L194.782596,197.710377 L193.961271,201.903428 L179.99431,201.903428 L184.456942,179.882893 L198.404699,179.882893" id="Fill-8" fill="#17253B" sketch:type="MSShapeGroup"></path>
                <path d="M229.776073,179.882893 L220.440146,201.903428 L215.094146,201.903428 L214.281684,187.293522 L208.039021,201.903428 L202.503939,201.903428 L201.622049,179.882893 L206.801125,179.882893 L206.857258,195.014528 L213.286049,179.882893 L218.273088,179.882893 L218.84772,195.001226 L224.718128,179.882893 L229.776073,179.882893" id="Fill-9" fill="#17253B" sketch:type="MSShapeGroup"></path>
                <path d="M247.512857,179.882893 L246.656079,184.161667 L237.856377,184.161667 L237.029143,188.237956 L245.174444,188.237956 L244.314711,192.518208 L236.15907,192.518208 L234.260863,201.903428 L229.284164,201.903428 L233.752705,179.882893 L247.512857,179.882893" id="Fill-10" fill="#17253B" sketch:type="MSShapeGroup"></path>
                <path d="M268.477331,188.073899 C268.477331,189.88 268.215866,191.659497 267.679641,193.406478 C267.146371,195.154937 266.370839,196.683176 265.356,197.985283 C264.242188,199.405629 262.945204,200.493428 261.45766,201.254591 C259.976024,202.003931 258.272809,202.377862 256.345058,202.377862 C253.720067,202.377862 251.659368,201.603396 250.171824,200.050031 C248.693143,198.489277 247.951587,196.352107 247.951587,193.62522 C247.951587,191.712704 248.23521,189.88739 248.799502,188.162579 C249.360839,186.436289 250.171824,184.90805 251.23541,183.597075 C252.266498,182.321572 253.547234,181.307673 255.074663,180.543553 C256.605046,179.788302 258.2669,179.405503 260.074997,179.405503 C262.701465,179.405503 264.75921,180.185881 266.245277,181.745157 C267.734298,183.305912 268.477331,185.42239 268.477331,188.073899 L268.477331,188.073899 Z M261.395617,195.596855 C261.985021,194.714497 262.435568,193.694686 262.770894,192.535943 C263.103264,191.375723 263.271666,190.041101 263.271666,188.539465 C263.271666,186.956541 262.937818,185.717987 262.280462,184.826761 C261.61572,183.938491 260.679173,183.486226 259.456049,183.486226 C258.648018,183.486226 257.882827,183.696101 257.153088,184.115849 C256.42335,184.534119 255.755653,185.175566 255.138182,186.031321 C254.547301,186.851604 254.06721,187.866981 253.708249,189.086321 C253.341903,190.308616 253.166116,191.675755 253.166116,193.196604 C253.166116,194.882987 253.502918,196.161447 254.178,197.008333 C254.860468,197.871478 255.791106,198.298616 256.986164,198.298616 C257.819307,198.298616 258.619951,198.06805 259.392529,197.59805 C260.162152,197.136918 260.829848,196.461478 261.395617,195.596855 L261.395617,195.596855 Z" id="Fill-11" fill="#17253B" sketch:type="MSShapeGroup"></path>
                <path d="M291.71079,179.882893 L288.915921,193.671038 C288.283678,196.72456 287.221568,198.935629 285.717775,200.313113 C284.211027,201.693553 282.032152,202.377862 279.184103,202.377862 C276.646267,202.377862 274.730334,201.85761 273.427441,200.818585 C272.128979,199.781038 271.4731,198.202547 271.4731,196.084591 C271.4731,195.651541 271.502644,195.208145 271.56321,194.76327 C271.628207,194.316918 271.690249,193.908994 271.752292,193.546887 L274.525003,179.882893 L279.553404,179.882893 L276.770353,193.572013 C276.706833,193.851352 276.66104,194.158774 276.619678,194.488365 C276.576839,194.816478 276.565021,195.089906 276.565021,195.31456 C276.565021,196.241258 276.807283,196.947736 277.293283,197.419214 C277.78076,197.903994 278.594699,198.14195 279.726237,198.14195 C280.825277,198.14195 281.714553,197.796101 282.397021,197.104403 C283.070626,196.412704 283.556626,195.333774 283.847635,193.875 L286.691252,179.882893 L291.71079,179.882893" id="Fill-12" fill="#17253B" sketch:type="MSShapeGroup"></path>
                <path d="M310.065046,201.903428 L305.816608,201.903428 L300.172213,186.660943 L297.08338,201.903428 L292.502571,201.903428 L296.959295,179.882893 L302.520967,179.882893 L307.358809,192.633491 L309.911416,179.882893 L314.512906,179.882893 L310.065046,201.903428" id="Fill-13" fill="#17253B" sketch:type="MSShapeGroup"></path>
                <path d="M336.363702,188.47739 C336.363702,190.972233 335.786116,193.271981 334.630942,195.384025 C333.484632,197.497547 332.010383,199.110031 330.212626,200.23478 C329.119495,200.91022 327.98648,201.353616 326.80324,201.575314 C325.622954,201.797013 324.206316,201.903428 322.565143,201.903428 L315.583878,201.903428 L320.039125,179.882893 L326.281787,179.882893 C328.125337,179.882893 329.605495,180.038082 330.726693,180.375063 C331.844936,180.694308 332.748985,181.130314 333.435884,181.683082 C334.390158,182.436855 335.111033,183.373899 335.611805,184.485346 C336.112578,185.608616 336.363702,186.940283 336.363702,188.47739 L336.363702,188.47739 Z M331.149173,189.010943 C331.149173,188.017736 330.982249,187.157547 330.648401,186.436289 C330.308644,185.717987 329.810827,185.134182 329.13279,184.690786 C328.822578,184.501604 328.500547,184.352327 328.174085,184.24739 C327.846146,184.149843 327.476845,184.074465 327.054365,184.016824 C326.659951,183.979874 326.20645,183.959182 325.686474,183.959182 L324.343696,183.959182 L324.185635,183.959182 L321.374517,197.827138 L321.823587,197.827138 L323.43817,197.827138 C324.008371,197.827138 324.476644,197.802013 324.828219,197.753239 C325.275812,197.700031 325.686474,197.624654 326.061684,197.522673 C326.423599,197.410346 326.831307,197.230031 327.271514,196.97434 C328.507933,196.25456 329.465161,195.166761 330.134334,193.730157 C330.807939,192.292075 331.149173,190.719497 331.149173,189.010943 L331.149173,189.010943 Z" id="Fill-14" fill="#17253B" sketch:type="MSShapeGroup"></path>
                <path d="M352.115125,201.903428 L338.220547,201.903428 L342.681702,179.882893 L347.680559,179.882893 L344.086523,197.624654 L352.971903,197.624654 L352.115125,201.903428" id="Fill-15" fill="#17253B" sketch:type="MSShapeGroup"></path>
                <path d="M373.77093,201.903428 L368.758778,201.903428 L368.320049,197.394088 L361.300377,197.394088 L359.018097,201.903428 L353.805046,201.903428 L365.356778,179.882893 L371.109009,179.882893 L373.77093,201.903428 L373.77093,201.903428 Z M367.96552,193.471509 L367.185556,185.608616 L363.25324,193.471509 L367.96552,193.471509 L367.96552,193.471509 Z" id="Fill-16" fill="#17253B" sketch:type="MSShapeGroup"></path>
                <path d="M394.528596,201.903428 L390.287544,201.903428 L384.644626,186.660943 L381.549884,201.903428 L376.974985,201.903428 L381.439094,179.882893 L386.994857,179.882893 L391.832699,192.633491 L394.389739,179.882893 L398.986796,179.882893 L394.528596,201.903428" id="Fill-17" fill="#17253B" sketch:type="MSShapeGroup"></path>
                <path d="M420.830207,188.47739 C420.830207,190.972233 420.255574,193.271981 419.104833,195.384025 C417.958523,197.497547 416.47541,199.110031 414.683562,200.23478 C413.590432,200.91022 412.457416,201.353616 411.277131,201.575314 C410.095368,201.797013 408.684638,201.903428 407.036079,201.903428 L400.048906,201.903428 L404.514492,179.882893 L410.754201,179.882893 C412.597751,179.882893 414.074954,180.038082 415.196152,180.375063 C416.315872,180.694308 417.221398,181.130314 417.908298,181.683082 C418.853708,182.436855 419.58197,183.373899 420.082742,184.485346 C420.584991,185.608616 420.830207,186.940283 420.830207,188.47739 L420.830207,188.47739 Z M415.618632,189.010943 C415.618632,188.017736 415.448754,187.157547 415.122292,186.436289 C414.789921,185.717987 414.280286,185.134182 413.606681,184.690786 C413.283173,184.501604 412.974438,184.352327 412.646498,184.24739 C412.317082,184.149843 411.950736,184.074465 411.523824,184.016824 C411.12941,183.979874 410.672954,183.959182 410.155933,183.959182 L408.822018,183.959182 L408.656571,183.959182 L405.845453,197.827138 L406.297477,197.827138 L407.913538,197.827138 C408.489647,197.827138 408.947581,197.802013 409.294723,197.753239 C409.752657,197.700031 410.155933,197.624654 410.53262,197.522673 C410.894535,197.410346 411.297812,197.230031 411.74245,196.97434 C412.986255,196.25456 413.940529,195.166761 414.606748,193.730157 C415.280353,192.292075 415.618632,190.719497 415.618632,189.010943 L415.618632,189.010943 Z" id="Fill-18" fill="#17253B" sketch:type="MSShapeGroup"></path>
                <path d="M209.483726,233.600346 L203.27504,233.600346 L201.858401,231.763208 C200.703228,232.629308 199.586462,233.233805 198.500717,233.57522 C197.425313,233.910723 196.441495,234.073302 195.566991,234.073302 C193.495951,234.073302 191.848869,233.563396 190.631653,232.531761 C189.414438,231.503082 188.808784,230.119686 188.808784,228.36827 C188.808784,227.52434 188.921052,226.735094 189.16479,226.024182 C189.401143,225.308836 189.733514,224.654088 190.179629,224.055503 C190.596201,223.487956 191.104359,222.972138 191.69524,222.521352 C192.284644,222.061698 192.925751,221.646384 193.606742,221.256195 C192.967112,220.580755 192.516565,219.924528 192.237374,219.265346 C191.958182,218.616509 191.820802,217.917421 191.820802,217.179906 C191.820802,216.346321 191.986249,215.568899 192.314188,214.837296 C192.639173,214.102736 193.119264,213.452421 193.751508,212.896698 C194.357161,212.349843 195.150419,211.909403 196.116511,211.590157 C197.084079,211.265 198.152097,211.100943 199.327951,211.100943 C201.245362,211.100943 202.749155,211.471918 203.840809,212.213868 C204.925076,212.964686 205.474596,213.980063 205.474596,215.28956 C205.474596,215.882233 205.369714,216.485252 205.146657,217.114874 C204.936894,217.731195 204.610432,218.30022 204.187951,218.817516 C203.749222,219.351069 203.186407,219.844717 202.496553,220.302893 C201.802267,220.765503 200.95583,221.16456 199.952809,221.510409 L203.173112,225.500975 L204.021027,220.725597 L208.87955,220.725597 L208.573769,222.372075 C208.34628,223.588459 207.960729,224.70434 207.44814,225.712327 C206.928164,226.726226 206.281149,227.614497 205.523343,228.377138 L209.532474,233.304748 L209.483726,233.600346 L209.483726,233.600346 Z M200.038486,229.271321 L195.54631,223.638711 C195.066219,224.116101 194.704304,224.620094 194.454657,225.158082 C194.210918,225.706415 194.092742,226.28283 194.092742,226.891761 C194.092742,227.895314 194.357161,228.709686 194.886,229.331918 C195.413362,229.963019 196.191848,230.273396 197.214073,230.273396 C197.735526,230.273396 198.208231,230.200975 198.641052,230.047264 C199.069441,229.902421 199.536237,229.640818 200.038486,229.271321 L200.038486,229.271321 Z M200.509714,216.037421 C200.509714,215.466918 200.378243,215.026478 200.112347,214.708711 C199.842018,214.385031 199.432833,214.228365 198.877404,214.228365 C198.264365,214.228365 197.757684,214.427893 197.338158,214.82695 C196.923064,215.227484 196.713301,215.790597 196.713301,216.523679 C196.713301,216.995157 196.874316,217.500629 197.180097,218.029748 C197.491787,218.563302 197.909836,219.105723 198.440152,219.661447 C199.04876,219.173711 199.551009,218.616509 199.932128,217.970629 C200.314723,217.329182 200.509714,216.686258 200.509714,216.037421 L200.509714,216.037421 Z" id="Fill-19" fill="#17253B" sketch:type="MSShapeGroup"></path>
                <path d="M235.624322,233.600346 L221.734176,233.600346 L226.196809,211.567987 L231.18828,211.567987 L227.592766,229.32305 L236.478146,229.32305 L235.624322,233.600346" id="Fill-20" fill="#17253B" sketch:type="MSShapeGroup"></path>
                <path d="M257.27865,233.600346 L252.266498,233.600346 L251.827769,229.086572 L244.808097,229.086572 L242.534681,233.600346 L237.312766,233.600346 L248.867453,211.567987 L254.616729,211.567987 L257.27865,233.600346 L257.27865,233.600346 Z M251.47324,225.158082 L250.70214,217.302579 L246.759483,225.158082 L251.47324,225.158082 L251.47324,225.158082 Z" id="Fill-21" fill="#17253B" sketch:type="MSShapeGroup"></path>
                <path d="M279.10138,216.568019 C279.10138,217.907075 278.773441,219.018522 278.135289,219.897925 C277.488274,220.765503 276.50741,221.426164 275.195653,221.871038 L275.164632,221.989277 C276.207538,222.338082 277.000796,222.828774 277.54293,223.483522 C278.085064,224.129403 278.356869,225.048711 278.356869,226.225189 C278.356869,228.539717 277.522249,230.348774 275.869258,231.650881 C274.213313,232.954465 271.863082,233.600346 268.82152,233.600346 L260.48566,233.600346 L264.946815,211.567987 L271.947283,211.567987 C274.270924,211.567987 276.042091,212.009906 277.262261,212.881918 C278.486863,213.756887 279.10138,214.98805 279.10138,216.568019 L279.10138,216.568019 Z M273.31665,226.358208 C273.31665,225.558616 273.055185,224.979245 272.513052,224.627484 C271.972395,224.266855 271.133343,224.090975 269.981125,224.090975 L267.366474,224.090975 L266.258571,229.521101 L268.777204,229.521101 C270.223386,229.521101 271.341629,229.247673 272.134888,228.709686 C272.919283,228.179088 273.31665,227.392799 273.31665,226.358208 L273.31665,226.358208 Z M273.883897,217.488805 C273.883897,216.844403 273.657884,216.374403 273.204383,216.090629 C272.752359,215.795031 272.120116,215.653145 271.320948,215.653145 L269.077076,215.653145 L268.146438,220.289591 L270.412468,220.289591 C271.502644,220.289591 272.349082,220.051635 272.970985,219.574245 C273.579593,219.096855 273.883897,218.405157 273.883897,217.488805 L273.883897,217.488805 Z" id="Fill-22" fill="#17253B" sketch:type="MSShapeGroup"></path>
                <path d="M300.637532,217.114874 C300.637532,218.882547 300.172213,220.366447 299.231234,221.571006 C298.300596,222.774088 297.021337,223.674182 295.411185,224.284591 L299.856091,233.600346 L294.309191,233.600346 L290.690043,225.518711 L287.92324,225.518711 L286.282067,233.600346 L281.312754,233.600346 L285.775386,211.567987 L293.260377,211.567987 C295.626857,211.567987 297.440863,212.026164 298.718644,212.942516 C299.996426,213.852956 300.637532,215.246698 300.637532,217.114874 L300.637532,217.114874 Z M295.2871,218.081478 C295.2871,217.202075 295.034498,216.575409 294.545544,216.205912 C294.047726,215.836415 293.325374,215.653145 292.357805,215.653145 L289.917465,215.653145 L288.72093,221.557704 L291.155362,221.557704 C292.468596,221.557704 293.490821,221.247327 294.207264,220.632484 C294.922231,220.026509 295.2871,219.173711 295.2871,218.081478 L295.2871,218.081478 Z" id="Fill-23" fill="#17253B" sketch:type="MSShapeGroup"></path>
                <path d="M320.700912,233.600346 L315.687283,233.600346 L315.248553,229.086572 L308.227404,229.086572 L305.956942,233.600346 L300.73355,233.600346 L312.288237,211.567987 L318.038991,211.567987 L320.700912,233.600346 L320.700912,233.600346 Z M314.895502,225.158082 L314.118492,217.302579 L310.183222,225.158082 L314.895502,225.158082 L314.895502,225.158082 Z" id="Fill-24" fill="#17253B" sketch:type="MSShapeGroup"></path>
                <path d="M344.68479,220.166918 C344.68479,222.660283 344.108681,224.967421 342.95203,227.080943 C341.80572,229.187075 340.331471,230.808428 338.533714,231.927264 C337.44797,232.593836 336.307568,233.047579 335.134669,233.267799 C333.942565,233.488019 332.530359,233.600346 330.886231,233.600346 L323.906444,233.600346 L328.369076,211.567987 L334.60583,211.567987 C336.447903,211.567987 337.926584,211.735 339.047781,212.067547 C340.164547,212.386792 341.070073,212.828711 341.762881,213.375566 C342.708292,214.126384 343.433599,215.067862 343.932894,216.183742 C344.433666,217.302579 344.68479,218.628333 344.68479,220.166918 L344.68479,220.166918 Z M339.471739,220.70934 C339.471739,219.708742 339.304815,218.850031 338.970967,218.130252 C338.63121,217.407516 338.127483,216.826667 337.452401,216.387704 C337.143666,216.194088 336.821635,216.038899 336.495173,215.941352 C336.176097,215.836415 335.79941,215.756604 335.382839,215.712264 C334.98104,215.670881 334.521629,215.653145 334.013471,215.653145 L332.670693,215.653145 L332.512632,215.653145 L329.695605,229.521101 L330.155015,229.521101 L331.768122,229.521101 C332.332413,229.521101 332.797733,229.494497 333.150784,229.441289 C333.604286,229.399906 334.013471,229.32305 334.379818,229.209245 C334.749119,229.10283 335.152395,228.921038 335.592602,228.666824 C336.830498,227.941132 337.789204,226.862201 338.464286,225.419686 C339.137891,223.980126 339.471739,222.406069 339.471739,220.70934 L339.471739,220.70934 Z" id="Fill-25" fill="#17253B" sketch:type="MSShapeGroup"></path>
                <path d="M367.856207,219.766384 C367.856207,221.571006 367.591787,223.353459 367.055562,225.094528 C366.522292,226.845943 365.743805,228.36827 364.726012,229.673333 C363.613678,231.099591 362.322602,232.185912 360.836535,232.942642 C359.350468,233.694937 357.642821,234.073302 355.722456,234.073302 C353.090079,234.073302 351.02938,233.301792 349.550699,231.741038 C348.063155,230.183239 347.327508,228.050503 347.327508,225.319182 C347.327508,223.405189 347.606699,221.579874 348.168036,219.853585 C348.73676,218.121384 349.550699,216.604969 350.609854,215.28956 C351.642419,214.017013 352.923155,213.000157 354.450584,212.240472 C355.973581,211.479308 357.642821,211.100943 359.443532,211.100943 C362.077386,211.100943 364.136608,211.878365 365.625629,213.440597 C367.113173,214.996918 367.856207,217.108962 367.856207,219.766384 L367.856207,219.766384 Z M360.771538,227.28195 C361.355033,226.409937 361.814444,225.38717 362.139429,224.22695 C362.476231,223.072642 362.640201,221.732107 362.640201,220.223082 C362.640201,218.646069 362.30783,217.407516 361.653429,216.514811 C360.991641,215.622107 360.055094,215.178711 358.830492,215.178711 C358.025416,215.178711 357.254316,215.390063 356.524578,215.806855 C355.794839,216.226604 355.124188,216.86805 354.514103,217.723805 C353.917313,218.545566 353.444608,219.562421 353.078261,220.783239 C352.711915,221.998145 352.53465,223.371195 352.53465,224.884654 C352.53465,226.575472 352.874407,227.848019 353.548012,228.705252 C354.229003,229.568396 355.159641,229.998491 356.362085,229.998491 C357.189319,229.998491 357.989964,229.760535 358.761064,229.292013 C359.533641,228.819057 360.19986,228.152484 360.771538,227.28195 L360.771538,227.28195 Z" id="Fill-26" fill="#17253B" sketch:type="MSShapeGroup"></path>
                <path d="M389.036353,217.114874 C389.036353,218.882547 388.572511,220.366447 387.634486,221.571006 C386.700894,222.774088 385.429021,223.674182 383.810006,224.284591 L388.259343,233.600346 L382.712444,233.600346 L379.088863,225.518711 L376.322061,225.518711 L374.680888,233.600346 L369.711574,233.600346 L374.175684,211.567987 L381.660675,211.567987 C384.027155,211.567987 385.838207,212.026164 387.121897,212.942516 C388.396723,213.852956 389.036353,215.246698 389.036353,217.114874 L389.036353,217.114874 Z M383.685921,218.081478 C383.685921,217.202075 383.431842,216.575409 382.94141,216.205912 C382.453933,215.836415 381.725672,215.653145 380.765489,215.653145 L378.316286,215.653145 L377.121228,221.557704 L379.552705,221.557704 C380.87628,221.557704 381.891119,221.247327 382.606085,220.632484 C383.331392,220.026509 383.685921,219.173711 383.685921,218.081478 L383.685921,218.081478 Z" id="Fill-27" fill="#17253B" sketch:type="MSShapeGroup"></path>
                <path d="M45.9425106,34.2183648 C38.488541,47.2246541 27.3046322,54.0913836 20.962997,49.5613522 C14.6184073,45.0268868 15.5209787,30.8027358 22.9734711,17.7964465 C30.4244863,4.78867925 41.6113495,-2.08100629 47.9515076,2.45641509 C54.2975745,6.9908805 53.395003,21.2120755 45.9425106,34.2183648" id="Fill-28" fill="#A02529" sketch:type="MSShapeGroup"></path>
                <path d="M138.880778,3.81616352 C138.880778,3.81616352 3.88356839,55.5930189 14.4367112,85.7883019 C22.7710942,109.651887 73.9857447,104.781918 73.9857447,104.781918 C73.9857447,104.781918 111.788863,105.99239 122.516316,112.931541 C130.90831,118.352799 121.036158,106.836321 121.036158,106.836321 C121.036158,106.836321 111.469787,96.4135535 53.6032888,87.4480818 C18.0780182,81.9544025 54.1040608,58.6524528 54.1040608,58.6524528 L138.880778,3.81616352" id="Fill-29" fill="#A02529" sketch:type="MSShapeGroup"></path>
                <path d="M1.14483283,210.555566 C1.14483283,210.555566 134.016347,163.121038 126.916906,131.987233 C120.486638,103.802013 58.5578298,110.522421 58.5578298,110.522421 C58.5578298,110.522421 30.1054103,109.558774 19.295234,102.882704 C8.45699088,96.1888994 20.6852827,108.949843 20.6852827,108.949843 C20.6852827,108.949843 30.3004012,117.906447 87.784304,129.530818 C123.071745,136.669497 86.812304,158.035283 86.812304,158.035283 L1.14483283,210.555566" id="Fill-30" fill="#A02529" sketch:type="MSShapeGroup"></path>
                <path d="M436.568334,143.416509 C436.769234,142.724811 442.358973,145.710346 443.409264,145.330503 C445.500985,145.433962 448.080182,146.759717 450.439277,146.807013 C452.790985,146.866132 455.225416,147.235629 457.845976,147.235629 C463.082663,147.235629 465.172906,147.482453 469.62372,145.961604 C469.62372,145.841887 469.789167,146.348836 469.858596,145.903962 C469.929502,145.459088 469.957568,145.110283 469.957568,144.859025 C469.957568,140.677799 466.286717,139.916635 463.163909,136.623679 C459.939173,133.23761 457.277252,131.322138 453.098243,127.505975 C449.414097,124.13173 446.001757,121.293994 442.082736,118.376447 C438.103149,115.424906 436.255167,112.597516 433.15304,109.257264 C433.021568,109.130157 431.582772,105.158805 431.062796,104.586824 C430.539866,104.010409 430.700881,103.64978 430.117386,102.882704 C429.526505,102.125975 429.443781,101.378113 428.781994,100.554874 C428.127593,99.7257233 428.358036,98.6408805 427.836584,98.0083019 C427.052188,96.9914465 427.015258,96.345566 426.88231,96.0943082 C426.761179,95.8445283 426.696182,94.823239 426.784815,94.4537421 C426.857198,94.1670126 426.458353,93.5359119 426.196888,92.4658491 C425.933945,91.3795283 425.673957,89.889717 425.406584,87.9860692 C424.888085,84.3132704 425.818723,79.8187107 429.725927,76.3823899 C431.443915,74.8763208 433.641994,73.3362579 435.532815,72.502673 C437.333526,71.6942138 438.993903,70.1053774 441.149143,69.916195 C443.311769,69.7270126 445.326675,68.5623585 446.77138,68.4322956 L451.070043,68.0701887 L455.56665,67.4523899 C457.132486,67.5839308 460.051441,67.6888679 462.400195,67.8765723 C464.762243,68.0701887 467.397574,68.5446226 469.428729,69.5733019 C471.521927,70.6330189 472.474723,70.6330189 474.206006,71.7607233 C476.672936,73.3569497 479.640638,79.3058491 480.03062,80.5754403 C480.426511,81.8509434 480.259587,82.9830818 479.537234,84.007327 C478.814881,85.0227044 477.76459,85.8740252 476.381927,86.5731132 C474.997787,87.2677673 473.782049,87.6801258 472.725848,87.8116667 L471.737599,87.8116667 C471.20876,87.5589308 471.022632,84.8970755 469.582359,83.9511635 C468.136176,82.9904717 467.654608,82.8530189 467.266103,82.4702201 L464.952802,80.9907547 C464.028073,80.9907547 463.287994,81.0424843 462.302699,80.9907547 C461.32479,80.9405031 459.914061,80.6197799 459.002626,80.6197799 L456.686371,80.251761 C453.940249,80.251761 450.841076,80.6197799 448.094954,80.6197799 C445.472918,80.6197799 443.46983,83.0111635 441.509581,83.5787107 C439.547854,84.1492138 437.971678,86.2257862 437.187283,87.5530189 C436.40141,88.8832075 436.461976,90.8784906 437.382274,93.5418239 L466.035593,122.075849 C466.94555,123.85239 467.927891,124.115472 469.811325,126.019119 C471.158535,127.374434 473.420134,129.408145 476.271137,132.380377 C478.207751,134.400786 481.086821,136.127075 482.13859,138.593836 C483.193313,141.063553 485.007319,145.083679 485.007319,147.235629 C485.007319,149.389057 482.595046,154.804403 481.15034,155.943931 C479.695295,157.081981 477.673003,158.762453 475.697982,159.33 C473.727392,159.894591 470.707988,160.683836 468.484796,160.815377 C466.25865,160.93805 463.706043,161.66522 462.400195,161.66522 C460.835836,161.66522 458.93172,161.685912 456.512061,161.87805 C454.092401,162.064277 447.412486,160.99717 445.118389,160.74739 C442.828723,160.493176 433.266784,155.660157 431.568,154.83544 C429.866261,154.013679 420.329435,140.376289 420.329435,138.222862 C420.329435,137.46761 436.373343,144.117075 436.568334,143.416509" id="Fill-31" fill="#A02529" sketch:type="MSShapeGroup"></path>
                <path d="M202.614729,104.665157 C201.845106,96.4963208 193.767757,86.6071069 180.301568,83.5964465 C166.841289,80.5916981 147.711502,77.4465409 131.061939,84.8896855 C123.365708,88.3245283 126.055696,91.3366667 126.055696,91.3366667 L136.440438,96.0677044 L137.602997,108.531572 C137.602997,108.531572 132.214158,130.448648 133.361945,148.073648 C134.523027,165.692736 135.669337,187.181195 134.523027,194.492799 C133.361945,201.792579 137.602997,203.08434 135.288219,217.275975 C132.97935,231.457264 142.210395,227.581981 142.210395,227.581981 C143.748164,225.189119 144.708347,209.299277 142.981495,193.629654 C139.910389,165.692736 147.215161,146.780409 147.215161,146.780409 C147.215161,146.780409 172.224219,148.506698 187.615204,129.595849 C202.434511,111.369308 203.388784,112.825126 202.614729,104.665157 L202.614729,104.665157 Z M180.301568,116.688585 C166.723112,122.761635 166.452784,127.436509 166.452784,127.436509 C166.452784,127.436509 163.372815,125.726478 160.682827,127.007893 C146.751319,133.682484 145.680347,129.153931 145.680347,129.153931 C145.680347,129.153931 141.829277,112.399465 144.520742,107.668428 C147.215161,102.940346 147.599234,91.765283 147.599234,91.765283 C151.450304,88.3245283 162.219119,91.765283 162.219119,91.765283 C162.219119,91.765283 183.761179,98.6408805 187.615204,102.080157 C191.45741,105.519434 184.152638,114.980031 180.301568,116.688585 L180.301568,116.688585 Z" id="Fill-32" fill="#A02529" sketch:type="MSShapeGroup"></path>
                <path d="M269.276498,94.6517925 C261.673331,81.7312264 248.781775,80.251761 248.781775,80.251761 C248.781775,80.251761 238.209429,82.833805 233.58135,85.421761 C228.950316,88.008239 205.152565,112.37434 201.517167,125.668836 C197.880292,138.963333 204.827581,150.404434 204.827581,150.404434 C204.827581,150.404434 207.802669,162.964371 220.692748,165.923302 C233.58135,168.871887 254.06721,150.772453 254.06721,150.772453 C254.06721,150.772453 267.630894,132.313868 269.276498,130.841792 C270.930967,129.363805 278.940365,111.078145 269.276498,94.6517925 L269.276498,94.6517925 Z M258.218152,128.587862 C257.718857,130.00673 247.879204,140.358553 247.879204,140.358553 C247.879204,140.358553 233.941787,151.042925 225.168675,149.301855 C216.401471,147.551918 212.090991,140.436887 212.090991,140.436887 C212.090991,140.436887 212.751301,131.944371 215.727866,126.401918 C219.564164,119.272107 234.06735,102.455566 237.213793,100.930283 C240.35876,99.406478 247.789094,99.4537736 247.789094,99.4537736 C247.789094,99.4537736 256.862079,98.6275786 261.345392,104.99327 C264.983745,110.158836 262.667489,116.072264 258.218152,128.587862 L258.218152,128.587862 Z" id="Fill-33" fill="#A02529" sketch:type="MSShapeGroup"></path>
                <path d="M387.947653,67.8765723 C389.057033,65.8635535 387.560626,29.6824214 392.881514,28.6197484 C398.205356,27.5615094 395.73104,32.0132075 395.73104,32.0132075 C395.73104,32.0132075 397.254036,65.9714465 398.964638,71.2729874 C400.67524,76.5715723 406.752456,73.3924214 406.752456,73.3924214 C406.752456,73.3924214 425.744863,70.6330189 424.41538,82.7259119 C424.41538,82.7259119 398.769647,86.5479874 397.629246,94.823239 C396.488845,103.102925 400.106517,117.525126 398.010365,132.597642 C395.923076,147.661289 398.394438,158.691509 398.394438,158.691509 C398.394438,158.691509 393.264109,163.573302 389.844383,144.901887 C386.423179,126.227516 392.131094,103.102925 385.665374,92.9166352 C385.665374,92.9166352 378.066638,92.4924528 370.656985,96.7327987 C363.25324,100.977579 348.815052,103.315755 349.008565,99.7050314 C349.197647,96.0943082 347.671696,93.5566038 358.69459,87.8205346 C369.711574,82.0933333 379.778717,78.0628616 380.916164,76.5715723 C382.05952,75.0906289 385.480723,72.3267925 387.947653,67.8765723" id="Fill-34" fill="#A02529" sketch:type="MSShapeGroup"></path>
                <path d="M388.021514,157.566761 C386.361137,156.218836 324.300857,131.761101 312.67231,129.063774 C305.329131,127.36261 328.221356,116.577736 328.221356,116.577736 C328.221356,116.577736 351.760596,105.124811 351.026426,90.4321384 C350.571447,81.3247799 337.284,78.9688679 337.284,78.9688679 C337.284,78.9688679 310.258559,74.0737736 291.684201,83.6866038 C284.308523,87.5057233 284.287842,82.1701887 284.134213,79.3014151 C283.974675,76.2937107 279.600675,78.6274528 279.600675,78.6274528 C279.600675,78.6274528 279.754304,88.7487107 274.771696,96.1711635 C274.771696,96.1711635 277.794055,109.832201 276.279921,117.087642 C275.179404,122.39066 278.698103,145.423616 279.455909,150.148742 C280.204851,154.869434 281.269915,166.507107 286.398766,165.497642 C291.532049,164.482264 291.532049,160.946918 291.532049,160.946918 C291.532049,160.946918 284.736912,149.137799 285.336657,132.606509 C285.336657,132.606509 361.300377,152.921447 386.505903,160.604025 C386.640328,160.643931 389.850292,161.267642 389.981763,161.279465 C399.193605,162.290409 389.677459,158.919119 388.021514,157.566761 L388.021514,157.566761 Z M285.036784,97.3505975 C284.887587,88.9142453 293.040274,89.0901258 293.040274,89.0901258 C301.497264,87.5633648 327.92296,87.9033019 327.92296,87.9033019 C327.92296,87.9033019 343.47496,88.9142453 342.111502,93.6364151 C340.331471,99.8365723 318.513173,115.534277 314.487793,116.243711 C303.006967,118.270031 286.700116,120.964403 286.700116,120.964403 C286.700116,120.964403 285.190413,105.785472 285.036784,97.3505975 L285.036784,97.3505975 Z" id="Fill-35" fill="#A02529" sketch:type="MSShapeGroup"></path>
            </g>
        </g>
    </g>
</svg>